# Blender MTL File: 'model.blend'
# Material Count: 5

newmtl Material
Ns 670.588235
Ka 1.000000 1.000000 1.000000
Kd 0.706338 0.655730 0.383884
Ks 0.477552 0.500000 0.455704
Ke 0.000000 0.000000 0.000000
Ni 1.000000
d 1.000000
illum 2

newmtl Material.001
Ns 135.294118
Ka 1.000000 1.000000 1.000000
Kd 0.000000 0.000000 0.000000
Ks 1.000000 1.000000 1.000000
Ke 0.000000 0.000000 0.000000
Ni 1.000000
d 1.000000
illum 2

newmtl Material.003
Ns 174.509804
Ka 1.000000 1.000000 1.000000
Kd 0.304079 0.343374 0.343374
Ks 0.150350 0.150350 0.150350
Ke 0.000000 0.000000 0.000000
Ni 1.000000
d 1.000000
illum 2

newmtl Material2
Ns 17.647059
Ka 1.000000 1.000000 1.000000
Kd 0.651233 0.570149 0.290479
Ks 0.100000 0.100000 0.100000
Ke 0.000000 0.000000 0.000000
Ni 1.000000
d 1.000000
illum 2
map_Kd  TEXTURE.png

newmtl Material2_TEXTURE.png
Ns 17.647059
Ka 1.000000 1.000000 1.000000
Kd 0.651233 0.570149 0.290479
Ks 0.100000 0.100000 0.100000
Ke 0.000000 0.000000 0.000000
Ni 1.000000
d 1.000000
illum 2
map_Kd TEXTURE.png
